EEB313: Quantitative Methods in R for Biology - 5 Data wrangling with dplyr
…
Here, tally() is the action applied to the groups created by group_by() and counts the total number of records for each category.

If there are many groups, tally() is not that useful on its own. For example, when we want to view the five most abundant species among the observations:

surveys %>%
    group_by(species) %>%
    tally()

# A tibble: 40 × 2
   species             n
   <chr>           <int>
 1 albigula         1252
 2 audubonii          75
 3 baileyi          2891
 4 bilineata         303
 5 brunneicapillus    50
 6 chlorurus          39
 7 clarki              1
 8 eremicus         1299
 9 flavus           1597
10 fulvescens         75
# ℹ 30 more rows

Since there are 32 rows in this output, we would like to order the table to display the most abundant species first. In dplyr, we say that we want to arrange() the data.

surveys %>%
    group_by(species) %>%
    tally() %>%
    arrange(n) # `n` is the name of the column `tally` generated

# A tibble: 40 × 2
   species          n
   <chr>        <int>
 1 clarki           1
 2 scutalatus       1
 3 tereticaudus     1
 4 tigris           1
 5 uniparens        1
 6 viridis          1
 7 leucophrys       2
 8 savannarum       2
 9 fuscus           5
10 undulatus        5
# ℹ 30 more rows
…
