EEB313: Quantitative Methods in R for Biology - 7 Exploratory data analysis
…
head(geneDensity)

# A tibble: 6 × 8
  chromosome  start     end winNum numElements numBases winSize density
  <chr>       <dbl>   <dbl>  <dbl>       <dbl>    <dbl>   <dbl>   <dbl>
1 LG_N            0 1000000      1           1     2499 1000000 0.00250
2 LG_N        20000 1020000      2           1     2499 1000000 0.00250
3 LG_N        40000 1040000      3           2    10158 1000000 0.0102 
4 LG_N        60000 1060000      4           2    11583 1000000 0.0116 
5 LG_N        80000 1080000      5           2    11583 1000000 0.0116 
6 LG_N       100000 1100000      6           2    11583 1000000 0.0116 

as_tibble(ltrDensity)

# A tibble: 48,952 × 8
   chromosome  start     end winNum numElements numBases winSize density
   <chr>       <dbl>   <dbl>  <dbl>       <dbl>    <dbl>   <dbl>   <dbl>
 1 LG_N            0 1000000      1         396   258184 1000000   0.258
 2 LG_N        20000 1020000      2         400   274748 1000000   0.275
 3 LG_N        40000 1040000      3         390   271692 1000000   0.272
 4 LG_N        60000 1060000      4         390   271540 1000000   0.272
 5 LG_N        80000 1080000      5         386   268414 1000000   0.268
 6 LG_N       100000 1100000      6         380   268519 1000000   0.269
 7 LG_N       120000 1120000      7         396   285314 1000000   0.285
 8 LG_N       140000 1140000      8         396   284053 1000000   0.284
 9 LG_N       160000 1160000      9         396   270360 1000000   0.270
10 LG_N       180000 1180000     10         388   267071 1000000   0.267
# ℹ 48,942 more rows

The basic “unit” in this data is the 1Mb window. Because this is shared across the two data sets, we can use it to join them together. Excellent!

What about the LTR age data set?

as_tibble(ltrAge)

# A tibble: 42,339 × 4
   chrom    start      end     K2P
   <chr>    <dbl>    <dbl>   <dbl>
 1 LG_2  61204840 61212964 0.0202 
 2 LG_2  61219360 61221366 0.0538 
 3 LG_2  61236795 61241286 0.00514
 4 LG_2  61241905 61249226 0.00100
 5 LG_2  61268475 61269268 0.0808 
 6 LG_2  61337049 61348048 0.00472
 7 LG_2  61365365 61372328 0.0260 
 8 LG_2  61382447 61389344 0.0617 
 9 LG_2  61396331 61407449 0.00800
10 LG_2  61413022 61414052 0.0984 
# ℹ 42,329 more rows
…
You might remember that in last lecture, when you encountered missing values in your data, you could replace them with 0. If we want to put our LTR age data into the same kind of windows that the gene density data is in, we’re going to have some windows without any age data. Do you think that setting LTR age to 0 would be a good way to handle the windows with missing age data?

windowedAges <- ltrAge %>%
  mutate(chromosome = chrom,            # get the "chromosome" col name to match
         age = K2P,                     # might as well give a better name
         winNum = floor(start/20000)) %>% # bin the start (20Mb) & round 
  select(chromosome, winNum, age)
  
genesPlusAges <- geneDensity %>%
  select("chromosome", "winNum", "density") %>%
  full_join(windowedAges, by = c("chromosome", "winNum") )

as_tibble(genesPlusAges)

# A tibble: 57,617 × 4
   chromosome winNum density      age
   <chr>       <dbl>   <dbl>    <dbl>
 1 LG_N            1 0.00250  0.0122 
 2 LG_N            2 0.00250  0.0508 
 3 LG_N            3 0.0102   0.0181 
 4 LG_N            4 0.0116   0.111  
 5 LG_N            5 0.0116  NA      
 6 LG_N            6 0.0116   0.0343 
 7 LG_N            6 0.0116   0.00505
 8 LG_N            7 0.0116   0.0277 
 9 LG_N            8 0.0116   0.0318 
10 LG_N            9 0.0116   0.0629 
# ℹ 57,607 more rows
…
