Dataframes and Introduction to Data Wrangling
…
Rows: 34786 Columns: 13
── Column specification ────────────────────────────────────────────────────────
Delimiter: ","
chr (6): species_id, sex, genus, species, taxa, plot_type
dbl (7): record_id, month, day, year, plot_id, hindfoot_length, weight

ℹ Use `spec()` to retrieve the full column specification for this data.
ℹ Specify the column types or set `show_col_types = FALSE` to quiet this message.

Let’s have a look at this dataset.

surveys

# A tibble: 34,786 × 13
   record_id month   day  year plot_id species_id sex   hindfoot_length weight
       <dbl> <dbl> <dbl> <dbl>   <dbl> <chr>      <chr>           <dbl>  <dbl>
 1         1     7    16  1977       2 NL         M                  32     NA
 2        72     8    19  1977       2 NL         M                  31     NA
 3       224     9    13  1977       2 NL         <NA>               NA     NA
 4       266    10    16  1977       2 NL         <NA>               NA     NA
 5       349    11    12  1977       2 NL         <NA>               NA     NA
 6       363    11    12  1977       2 NL         <NA>               NA     NA
 7       435    12    10  1977       2 NL         <NA>               NA     NA
 8       506     1     8  1978       2 NL         <NA>               NA     NA
 9       588     2    18  1978       2 NL         M                  NA    218
10       661     3    11  1978       2 NL         <NA>               NA     NA
# ℹ 34,776 more rows
# ℹ 4 more variables: genus <chr>, species <chr>, taxa <chr>, plot_type <chr>
…
# A tibble: 1 × 1
  record_id
      <dbl>
1         1

surveys[1, 6]   # First element in the 6th column

# A tibble: 1 × 1
  species_id
  <chr>     
1 NL        

surveys[, 1]    # First column in the data frame

# A tibble: 34,786 × 1
   record_id
       <dbl>
 1         1
 2        72
 3       224
 4       266
 5       349
 6       363
 7       435
 8       506
 9       588
10       661
# ℹ 34,776 more rows

surveys[1]      # First column in the data frame

# A tibble: 34,786 × 1
   record_id
       <dbl>
 1         1
 2        72
 3       224
 4       266
 5       349
 6       363
 7       435
 8       506
 9       588
10       661
# ℹ 34,776 more rows
…
You can also exclude certain parts of a data frame using the “-” sign:

surveys[,-1]    # All columns, except the first

# A tibble: 34,786 × 12
   month   day  year plot_id species_id sex   hindfoot_length weight genus  
   <dbl> <dbl> <dbl>   <dbl> <chr>      <chr>           <dbl>  <dbl> <chr>  
 1     7    16  1977       2 NL         M                  32     NA Neotoma
 2     8    19  1977       2 NL         M                  31     NA Neotoma
 3     9    13  1977       2 NL         <NA>               NA     NA Neotoma
 4    10    16  1977       2 NL         <NA>               NA     NA Neotoma
 5    11    12  1977       2 NL         <NA>               NA     NA Neotoma
 6    11    12  1977       2 NL         <NA>               NA     NA Neotoma
 7    12    10  1977       2 NL         <NA>               NA     NA Neotoma
 8     1     8  1978       2 NL         <NA>               NA     NA Neotoma
 9     2    18  1978       2 NL         M                  NA    218 Neotoma
10     3    11  1978       2 NL         <NA>               NA     NA Neotoma
# ℹ 34,776 more rows
# ℹ 3 more variables: species <chr>, taxa <chr>, plot_type <chr>
…
Notice for the sex of the observations, the summary is returning that there are characters in this column but not much else. Let’s take a look at the data in this column closer. Again, previous function parameters have words read in as characters but recent defaults have changed to read words in as factors.

As a column of character values, the relationship between the observations being recorded as “M”, or “F” are not being recognized. We will need convert this column to factor.

Let’s overwrite the column in the original dataset. Remember, there is no undo button in programming. Double check your work before you overwrite objects

surveys_subset$sex <- as.factor(surveys_subset$sex)

Renaming columns in a dataframe

First, let’s check out our surveys_subset dataframe.

surveys_subset

# A tibble: 4,349 × 13
   record_id month   day  year plot_id species_id sex   hindfoot_length weight
       <dbl> <dbl> <dbl> <dbl>   <dbl> <chr>      <fct>           <dbl>  <dbl>
 1         1     7    16  1977       2 NL         M                  32     NA
 2       588     2    18  1978       2 NL         M                  NA    218
 3      1453    11     5  1978       2 NL         M                  NA    218
 4      3000     5    18  1980       2 NL         F                  31     87
 5      5558     3    29  1982       2 NL         M                  33    211
 6      6500     8    16  1982       2 NL         F                  33    152
 7      8657    11    13  1983       2 NL         F                  32    158
 8      9605     9    30  1984       2 NL         F                  32    173
 9     11215    12     8  1985       2 NL         F                  32    160
10     11879     9     7  1986       2 NL         F                  32    135
# ℹ 4,339 more rows
# ℹ 4 more variables: genus <chr>, species <chr>, taxa <chr>, plot_type <chr>

This dataframe contains hindfoot length and weight data of several species in different taxanomic groups. While we were collecting data, we notice that we didn’t write down the units in our lab notebook of hindfoot_length and weight! Let’s add it into the column manually here so that we don’t forget.

We can do that by renaming our column, using the rename() function.

rename(surveys_subset,
       hindfoot_length_cm = hindfoot_length,
       weight_g = weight)

# A tibble: 4,349 × 13
   record_id month   day  year plot_id species_id sex   hindfoot_length_cm
       <dbl> <dbl> <dbl> <dbl>   <dbl> <chr>      <fct>              <dbl>
 1         1     7    16  1977       2 NL         M                     32
 2       588     2    18  1978       2 NL         M                     NA
 3      1453    11     5  1978       2 NL         M                     NA
 4      3000     5    18  1980       2 NL         F                     31
 5      5558     3    29  1982       2 NL         M                     33
 6      6500     8    16  1982       2 NL         F                     33
 7      8657    11    13  1983       2 NL         F                     32
 8      9605     9    30  1984       2 NL         F                     32
 9     11215    12     8  1985       2 NL         F                     32
10     11879     9     7  1986       2 NL         F                     32
# ℹ 4,339 more rows
# ℹ 5 more variables: weight_g <dbl>, genus <chr>, species <chr>, taxa <chr>,
#   plot_type <chr>
…
