EEB313: Quantitative Methods in R for Biology - 7 Data visualization in ggplot
…
Great! Together with the genus plot, this definitely seem to explain most of the variation we see in the hindfoot length and weight measurements. It is still a bit messy as it appears like we have around four clusters of data points, maybe three colours of points that really stood out, but there are 21 species in the legend. Let’s investigate!

surveys_subset %>%
    filter(!is.na(hindfoot_length) & !is.na(weight)) %>%
    group_by(species) %>%
    tally() %>%
    arrange(desc(n))

# A tibble: 21 × 2
   species          n
   <chr>        <int>
 1 merriami      1213
 2 penicillatus   377
 3 ordii          347
 4 baileyi        346
 5 megalotis      305
 6 torridus       265
 7 spectabilis    262
 8 flavus         182
 9 eremicus       151
10 albigula       125
# ℹ 11 more rows

When we look at the number of observations for each species, it seems like most species are fairly well represented. However some have rarely been sampled, and there is a big drop from 104 to 19 observations. Let’s include only species with more than 100 observations and see what happens.

surveys_abun_species <- surveys_subset %>%
    filter(!is.na(hindfoot_length) & !is.na(weight)) %>%
    group_by(species) %>%
    mutate(n = n()) %>% # add count value to each row
    filter(n > 100) %>%
    select(-n)

surveys_abun_species

# A tibble: 3,791 × 14
# Groups:   species [12]
    ...1 record_id month   day  year plot_id species_id sex   hindfoot_length
   <dbl>     <dbl> <dbl> <dbl> <dbl>   <dbl> <chr>      <chr>           <dbl>
 1     4      3000     5    18  1980       2 NL         F                  31
 2     5      5558     3    29  1982       2 NL         M                  33
 3     6      6500     8    16  1982       2 NL         F                  33
 4     7      8657    11    13  1983       2 NL         F                  32
 5     8      9605     9    30  1984       2 NL         F                  32
 6     9     11215    12     8  1985       2 NL         F                  32
 7    10     11879     9     7  1986       2 NL         F                  32
 8    11     12729     4    26  1987       2 NL         M                  32
 9    12     13434     9    27  1987       2 NL         M                  33
10    14     17230     2    25  1990       2 NL         M                  33
# ℹ 3,781 more rows
# ℹ 5 more variables: weight <dbl>, genus <chr>, species <chr>, taxa <chr>,
#   plot_type <chr>
…
Answer: using jitter

7.3 Split-apply-combine… plot!

In this section, we will learn how to work with dplyr and ggplot together. Aided by the pipes (%>%), we can create a powerful data exploration workflow using these two packages.

Let’s calculate number of counts per year for each species. First, we need to group the data and count records within each group:

surveys_abun_species %>%
    group_by(year, species) %>%
    tally() %>%
    arrange(desc(n)) # Adding arrange just to compare with histogram

# A tibble: 259 × 3
# Groups:   year [26]
    year species      n
   <dbl> <chr>    <int>
 1  2002 baileyi    109
 2  1985 merriami    81
 3  1997 merriami    74
 4  2001 baileyi     68
 5  1982 merriami    64
 6  1983 merriami    63
 7  2000 baileyi     61
 8  1998 merriami    57
 9  1987 merriami    56
10  1995 merriami    55
# ℹ 249 more rows
…
Now we would like to split the line in each plot by the sex of each individual measured. To do that we need to make counts in the data frame grouped by year, species, and sex:

surveys_abun_species %>%
    group_by(year, species, sex) %>%
    tally()

# A tibble: 479 × 4
# Groups:   year, species [259]
    year species      sex       n
   <dbl> <chr>        <chr> <int>
 1  1977 eremicus     M         1
 2  1977 flavus       F         2
 3  1977 flavus       M         2
 4  1977 megalotis    F         1
 5  1977 merriami     F        12
 6  1977 merriami     M        11
 7  1977 ordii        F         2
 8  1977 ordii        M         1
 9  1977 penicillatus F         1
10  1977 spectabilis  F         2
# ℹ 469 more rows
…
